<?xml version="1.0" encoding="UTF-8" standalone="no"?>
<svg
   version="1.1"
   inkscape:output_extension="org.inkscape.output.svg.inkscape"
   sodipodi:docname="interpolate-f13.svg"
   inkscape:version="1.3-beta (aacce78c12, 2023-06-06)"
   sodipodi:version="0.32"
   viewBox="0 0 300 31"
   id="svg15699"
   height="31"
   width="300"
   xmlns:inkscape="http://www.inkscape.org/namespaces/inkscape"
   xmlns:sodipodi="http://sodipodi.sourceforge.net/DTD/sodipodi-0.dtd"
   xmlns="http://www.w3.org/2000/svg"
   xmlns:svg="http://www.w3.org/2000/svg"
   xmlns:rdf="http://www.w3.org/1999/02/22-rdf-syntax-ns#"
   xmlns:cc="http://creativecommons.org/ns#"
   xmlns:dc="http://purl.org/dc/elements/1.1/">
  <sodipodi:namedview
     inkscape:lockguides="true"
     id="base"
     pagecolor="#ffffff"
     bordercolor="#666666"
     borderopacity="1.0"
     inkscape:pageopacity="0.0"
     inkscape:pageshadow="2"
     inkscape:zoom="2.8"
     inkscape:cx="135.35714"
     inkscape:cy="-19.464286"
     inkscape:document-units="px"
     inkscape:current-layer="g51"
     inkscape:document-rotation="0"
     showgrid="false"
     units="px"
     showguides="true"
     inkscape:guide-bbox="true"
     inkscape:window-width="1920"
     inkscape:window-height="1137"
     inkscape:window-x="0"
     inkscape:window-y="0"
     inkscape:window-maximized="1"
     inkscape:showpageshadow="2"
     inkscape:pagecheckerboard="0"
     inkscape:deskcolor="#d1d1d1" />
  <defs
     id="defs15701" />
  <metadata
     id="metadata15704">
    <rdf:RDF>
      <cc:Work
         rdf:about="">
        <dc:format>image/svg+xml</dc:format>
        <dc:type
           rdf:resource="http://purl.org/dc/dcmitype/StillImage" />
      </cc:Work>
    </rdf:RDF>
  </metadata>
  <g
     id="layer1"
     inkscape:groupmode="layer"
     inkscape:label="Layer 1">
    <g
       id="g51"
       transform="matrix(3.7795276,0,0,3.7795276,-295.83936,-634.65925)">
      <path
         inkscape:connector-curvature="0"
         style="fill:#00ff00;fill-opacity:1;stroke:#17a500;stroke-width:0.229881;stroke-linejoin:round;stroke-miterlimit:4;stroke-opacity:1"
         id="path1"
         d="m 146.43029,175.18071 h -2.81871 l -1.40936,-2.44105 1.40936,-2.44107 h 2.81871 l 1.40935,2.44107 z" />
      <path
         inkscape:connector-curvature="0"
         style="fill:#00ff00;fill-opacity:1;stroke:#17a500;stroke-width:0.210806;stroke-linejoin:round;stroke-miterlimit:4;stroke-opacity:1"
         d="m 87.004707,175.49241 c 0,0 -0.923439,-0.86638 -0.958057,-0.86638 -0.01731,0 -0.208946,1.27781 -0.230582,1.27781 -0.02164,0 -0.633282,-1.1022 -0.656361,-1.1022 -0.02308,0 -0.604073,1.16226 -0.62571,1.16226 -0.02164,0 -0.260992,-1.23013 -0.278301,-1.23013 -0.03462,0 -0.947472,0.933 -0.947472,0.933 0,0 0.160157,-1.25761 0.142848,-1.28759 -0.0087,-0.015 -1.153288,0.57989 -1.164106,0.56115 -0.01082,-0.0188 0.523389,-1.16276 0.51185,-1.18274 -0.01154,-0.02 -1.291321,0.19183 -1.302139,0.17309 -0.01082,-0.0187 0.845462,-0.93657 0.836807,-0.95157 -0.01731,-0.03 -1.306652,-0.2214 -1.306652,-0.2214 0,0 1.11374,-0.60857 1.131049,-0.63855 0.0087,-0.015 -1.143533,-0.59039 -1.132715,-0.60912 0.0054,-0.009 1.24113,-0.23821 1.246809,-0.24805 0.0057,-0.01 -0.921543,-0.90961 -0.915773,-0.91961 0.0058,-0.01 1.249188,0.15171 1.254868,0.14189 0.0057,-0.01 -0.601104,-1.15406 -0.595695,-1.16342 0.01082,-0.0187 1.144932,0.50951 1.153587,0.49453 0.01731,-0.03 -0.202962,-1.31821 -0.202962,-1.31821 0,0 0.923438,0.86636 0.958055,0.86636 0.01731,0 0.208947,-1.27781 0.230583,-1.27781 0.02163,0 0.633282,1.1022 0.656361,1.1022 0.02308,0 0.604073,-1.16226 0.625709,-1.16226 0.02164,0 0.260992,1.23013 0.278302,1.23013 0.03462,0 0.947471,-0.933 0.947471,-0.933 0,0 -0.160156,1.25764 -0.142848,1.28762 0.0087,0.015 1.15329,-0.57992 1.164108,-0.56116 0.01082,0.0187 -0.52339,1.16274 -0.511852,1.18274 0.0058,0.01 1.279782,-0.21182 1.285462,-0.20201 0.0057,0.01 -0.855109,0.91988 -0.849698,0.92927 0.01082,0.0187 1.298717,0.20765 1.307372,0.22265 0.01731,0.03 -1.073351,0.63855 -1.073351,0.63855 0,0 1.150744,0.5779 1.133435,0.60788 -0.0087,0.015 -1.248883,0.25161 -1.259702,0.27035 -0.0054,0.009 0.921996,0.90884 0.916315,0.91866 -0.0057,0.01 -1.249098,-0.15185 -1.254868,-0.14187 -0.01154,0.02 0.589296,1.17454 0.578477,1.19327 -0.01082,0.0187 -1.144932,-0.50954 -1.153587,-0.49456 -0.01731,0.03 0.202963,1.31823 0.202963,1.31823 0,0 0,0 0,0"
         id="path2" />
      <g
         id="g8">
        <path
           d="M 120.152 175.319 C 120.152 175.319 119.65 174.935 119.493 174.935 C 119.416 174.935 119.25 175.5 119.153 175.5 C 119.069 175.5 118.72 175.013 118.629 175.013 C 118.539 175.013 118.2 175.527 118.111 175.527 C 118.022 175.527 117.838 174.983 117.758 174.983 C 117.65 174.983 117.163 175.396 117.098 175.396 C 117.003 175.396 116.971 175.192 116.99 175.028 C 117.002 174.921 116.996 174.805 116.966 174.754 C 116.934 174.698 116.387 174.89 116.334 174.798 C 116.293 174.727 116.489 174.152 116.442 174.071 C 116.398 173.995 115.792 174.018 115.746 173.94 C 115.703 173.864 116.042 173.39 116.001 173.319 C 115.95 173.231 115.339 173.075 115.302 173.012 C 115.252 172.925 115.704 172.584 115.684 172.524 C 115.664 172.484 115.587 172.429 115.504 172.386 C 115.355 172.308 115.178 172.146 115.232 172.052 C 115.267 171.992 115.853 171.822 115.899 171.742 C 115.939 171.673 115.569 171.206 115.613 171.13 C 115.654 171.059 116.242 171.064 116.283 170.993 C 116.326 170.918 116.098 170.342 116.139 170.272 C 116.185 170.192 116.726 170.358 116.763 170.293 C 116.843 170.155 116.806 169.575 116.795 169.509 C 116.794 169.504 116.794 169.502 116.796 169.502 C 116.812 169.502 117.31 169.885 117.455 169.885 C 117.532 169.885 117.698 169.32 117.795 169.32 C 117.879 169.32 118.228 169.807 118.318 169.807 C 118.409 169.807 118.747 169.293 118.836 169.293 C 118.926 169.293 119.109 169.837 119.189 169.837 C 119.298 169.837 119.785 169.425 119.85 169.425 C 119.943 169.425 119.975 169.623 119.956 169.785 C 119.944 169.895 119.95 170.017 119.981 170.069 C 120.013 170.126 120.56 169.933 120.613 170.025 C 120.654 170.096 120.458 170.671 120.505 170.752 C 120.546 170.823 121.149 170.794 121.191 170.868 C 121.233 170.94 120.891 171.409 120.931 171.478 C 120.979 171.561 121.589 171.716 121.63 171.786 C 121.685 171.881 121.242 172.219 121.269 172.266 C 121.294 172.308 121.384 172.372 121.478 172.419 C 121.625 172.495 121.784 172.646 121.731 172.738 C 121.695 172.8 121.106 172.975 121.056 173.061 C 121.017 173.129 121.387 173.596 121.343 173.672 C 121.303 173.742 120.714 173.738 120.673 173.809 C 120.626 173.889 120.851 174.471 120.808 174.546 C 120.761 174.626 120.221 174.46 120.183 174.525 C 120.103 174.665 120.152 175.319 120.152 175.319"
           style="fill:#00ff00;fill-opacity:1;stroke:#17a500;stroke-width:0.210806;stroke-linejoin:round;stroke-miterlimit:4;stroke-opacity:1"
           id="path3" />
        <path
           d="M 127.813 175.278 C 127.813 175.278 127.409 175.007 127.224 175.007 C 127.133 175.007 126.973 175.407 126.859 175.407 C 126.76 175.407 126.471 175.062 126.365 175.062 C 126.259 175.062 125.977 175.426 125.873 175.426 C 125.767 175.426 125.596 175.041 125.502 175.041 C 125.377 175.041 124.989 175.333 124.908 175.333 C 124.792 175.333 124.738 175.189 124.751 175.073 C 124.76 174.997 124.748 174.901 124.713 174.841 C 124.676 174.776 124.266 174.874 124.203 174.765 C 124.156 174.683 124.274 174.239 124.219 174.143 C 124.167 174.054 123.716 174.034 123.663 173.942 C 123.612 173.853 123.832 173.482 123.783 173.397 C 123.724 173.296 123.27 173.148 123.225 173.071 C 123.164 172.964 123.461 172.685 123.434 172.618 C 123.408 172.57 123.347 172.519 123.288 172.489 C 123.183 172.434 123.074 172.29 123.139 172.177 C 123.18 172.106 123.616 171.949 123.672 171.852 C 123.72 171.77 123.479 171.403 123.531 171.312 C 123.58 171.228 124.017 171.195 124.066 171.11 C 124.118 171.02 123.978 170.576 124.026 170.492 C 124.081 170.397 124.484 170.48 124.528 170.403 C 124.622 170.241 124.621 169.786 124.613 169.739 C 124.613 169.736 124.614 169.734 124.616 169.734 C 124.635 169.734 125.035 170.006 125.206 170.006 C 125.297 170.006 125.456 169.605 125.57 169.605 C 125.669 169.605 125.958 169.951 126.064 169.951 C 126.17 169.951 126.452 169.587 126.556 169.587 C 126.661 169.587 126.832 169.972 126.926 169.972 C 127.052 169.972 127.441 169.68 127.521 169.68 C 127.636 169.68 127.688 169.82 127.675 169.935 C 127.666 170.013 127.679 170.113 127.715 170.176 C 127.753 170.241 128.162 170.142 128.225 170.251 C 128.272 170.333 128.154 170.777 128.209 170.873 C 128.258 170.958 128.707 170.973 128.758 171.062 C 128.807 171.148 128.585 171.515 128.633 171.598 C 128.69 171.696 129.144 171.843 129.192 171.926 C 129.255 172.036 128.962 172.311 128.996 172.369 C 129.026 172.421 129.098 172.479 129.164 172.513 C 129.268 172.566 129.365 172.7 129.302 172.809 C 129.26 172.882 128.822 173.043 128.763 173.145 C 128.716 173.226 128.957 173.594 128.904 173.685 C 128.856 173.769 128.418 173.801 128.369 173.886 C 128.315 173.98 128.453 174.429 128.402 174.517 C 128.347 174.612 127.944 174.53 127.899 174.606 C 127.804 174.771 127.813 175.278 127.813 175.278"
           style="fill:#00ff00;fill-opacity:1;stroke:#17a500;stroke-width:0.210806;stroke-linejoin:round;stroke-miterlimit:4;stroke-opacity:1"
           id="path4" />
        <path
           d="M 133.092 175.251 C 133.092 175.251 132.754 175.056 132.55 175.056 C 132.449 175.056 132.294 175.343 132.168 175.343 C 132.059 175.343 131.812 175.096 131.695 175.096 C 131.578 175.096 131.335 175.357 131.22 175.357 C 131.103 175.357 130.941 175.08 130.837 175.08 C 130.701 175.08 130.38 175.29 130.289 175.29 C 130.158 175.29 130.089 175.186 130.099 175.103 C 130.105 175.049 130.088 174.967 130.05 174.9 C 130.009 174.829 129.695 174.863 129.625 174.742 C 129.573 174.652 129.637 174.299 129.576 174.193 C 129.519 174.095 129.176 174.045 129.117 173.943 C 129.06 173.845 129.198 173.545 129.144 173.452 C 129.08 173.341 128.734 173.199 128.683 173.111 C 128.614 172.991 128.806 172.754 128.772 172.683 C 128.743 172.629 128.693 172.582 128.651 172.56 C 128.575 172.521 128.514 172.389 128.586 172.264 C 128.632 172.184 128.965 172.037 129.027 171.929 C 129.08 171.837 128.928 171.539 128.987 171.437 C 129.041 171.343 129.374 171.286 129.428 171.191 C 129.486 171.091 129.406 170.737 129.46 170.644 C 129.521 170.539 129.829 170.564 129.878 170.479 C 129.982 170.299 130.006 169.931 130 169.898 C 130 169.896 130.001 169.894 130.003 169.894 C 130.025 169.894 130.358 170.089 130.545 170.089 C 130.646 170.089 130.801 169.802 130.927 169.802 C 131.036 169.802 131.283 170.049 131.399 170.049 C 131.516 170.049 131.76 169.788 131.874 169.788 C 131.991 169.788 132.153 170.065 132.257 170.065 C 132.394 170.065 132.715 169.855 132.806 169.855 C 132.935 169.855 133.002 169.956 132.993 170.038 C 132.986 170.094 133.004 170.18 133.043 170.249 C 133.085 170.321 133.399 170.286 133.468 170.406 C 133.521 170.497 133.456 170.85 133.517 170.955 C 133.572 171.05 133.914 171.097 133.97 171.195 C 134.026 171.291 133.886 171.589 133.939 171.68 C 134.002 171.789 134.348 171.93 134.401 172.022 C 134.471 172.142 134.281 172.374 134.319 172.44 C 134.353 172.499 134.412 172.553 134.459 172.577 C 134.534 172.615 134.588 172.738 134.518 172.858 C 134.472 172.939 134.137 173.09 134.072 173.202 C 134.019 173.293 134.172 173.592 134.113 173.693 C 134.059 173.787 133.726 173.844 133.672 173.939 C 133.611 174.043 133.689 174.401 133.633 174.498 C 133.573 174.602 133.264 174.578 133.215 174.662 C 133.11 174.845 133.092 175.251 133.092 175.251"
           style="fill:#00ff00;fill-opacity:1;stroke:#17a500;stroke-width:0.210806;stroke-linejoin:round;stroke-miterlimit:4;stroke-opacity:1"
           id="path5" />
        <path
           d="M 137.246 175.229 C 137.246 175.229 136.961 175.095 136.741 175.095 C 136.633 175.095 136.481 175.292 136.346 175.292 C 136.23 175.292 136.015 175.122 135.89 175.122 C 135.765 175.122 135.551 175.302 135.428 175.302 C 135.303 175.302 135.148 175.112 135.036 175.112 C 134.89 175.112 134.623 175.256 134.524 175.256 C 134.38 175.256 134.301 175.185 134.307 175.127 C 134.312 175.09 134.292 175.018 134.251 174.947 C 134.206 174.871 133.967 174.855 133.892 174.724 C 133.836 174.627 133.858 174.346 133.793 174.232 C 133.732 174.127 133.473 174.054 133.41 173.944 C 133.349 173.839 133.422 173.595 133.364 173.494 C 133.296 173.376 133.034 173.239 132.979 173.143 C 132.903 173.012 133.013 172.809 132.974 172.733 C 132.942 172.676 132.9 172.631 132.872 172.616 C 132.819 172.589 132.795 172.468 132.873 172.332 C 132.923 172.246 133.174 172.106 133.242 171.989 C 133.299 171.89 133.216 171.646 133.28 171.536 C 133.338 171.434 133.589 171.357 133.648 171.255 C 133.711 171.146 133.678 170.864 133.737 170.763 C 133.802 170.65 134.036 170.63 134.088 170.539 C 134.2 170.345 134.243 170.046 134.239 170.023 C 134.239 170.021 134.24 170.02 134.243 170.02 C 134.267 170.02 134.546 170.154 134.748 170.154 C 134.856 170.154 135.008 169.957 135.143 169.957 C 135.26 169.957 135.474 170.127 135.599 170.127 C 135.724 170.127 135.937 169.947 136.06 169.947 C 136.185 169.947 136.34 170.137 136.452 170.137 C 136.599 170.137 136.866 169.993 136.966 169.993 C 137.106 169.993 137.184 170.062 137.178 170.119 C 137.173 170.158 137.194 170.232 137.237 170.306 C 137.282 170.383 137.521 170.399 137.595 170.529 C 137.652 170.626 137.63 170.908 137.695 171.021 C 137.754 171.123 138.011 171.194 138.073 171.3 C 138.133 171.404 138.058 171.646 138.116 171.745 C 138.183 171.862 138.444 171.999 138.501 172.098 C 138.575 172.226 138.467 172.424 138.508 172.495 C 138.545 172.56 138.594 172.611 138.626 172.628 C 138.678 172.654 138.698 172.767 138.624 172.897 C 138.573 172.984 138.321 173.127 138.251 173.248 C 138.194 173.346 138.276 173.59 138.213 173.7 C 138.155 173.801 137.904 173.878 137.844 173.981 C 137.78 174.092 137.811 174.378 137.751 174.482 C 137.686 174.595 137.451 174.616 137.399 174.706 C 137.286 174.902 137.246 175.229 137.246 175.229"
           style="fill:#00ff00;fill-opacity:1;stroke:#17a500;stroke-width:0.210806;stroke-linejoin:round;stroke-miterlimit:4;stroke-opacity:1"
           id="path6" />
        <path
           d="M 140.725 175.211 C 140.725 175.211 140.484 175.127 140.251 175.127 C 140.137 175.127 139.988 175.25 139.844 175.25 C 139.721 175.25 139.534 175.144 139.402 175.144 C 139.27 175.144 139.082 175.256 138.952 175.256 C 138.82 175.256 138.67 175.138 138.552 175.138 C 138.398 175.138 138.176 175.227 138.07 175.227 C 137.916 175.227 137.827 175.183 137.831 175.148 C 137.834 175.124 137.811 175.062 137.768 174.987 C 137.721 174.906 137.545 174.848 137.465 174.71 C 137.406 174.607 137.392 174.385 137.323 174.265 C 137.259 174.154 137.07 174.061 137.004 173.945 C 136.939 173.834 136.958 173.636 136.897 173.53 C 136.825 173.406 136.635 173.272 136.576 173.17 C 136.495 173.03 136.535 172.855 136.492 172.776 C 136.458 172.714 136.423 172.672 136.405 172.663 C 136.373 172.646 136.379 172.533 136.463 172.389 C 136.516 172.297 136.699 172.164 136.771 172.039 C 136.831 171.934 136.807 171.735 136.875 171.618 C 136.937 171.511 137.119 171.417 137.182 171.308 C 137.249 171.193 137.256 170.97 137.317 170.863 C 137.386 170.744 137.558 170.685 137.614 170.589 C 137.732 170.384 137.791 170.142 137.789 170.127 C 137.789 170.126 137.79 170.126 137.793 170.126 C 137.819 170.126 138.053 170.209 138.266 170.209 C 138.381 170.209 138.53 170.086 138.673 170.086 C 138.796 170.086 138.983 170.192 139.115 170.192 C 139.247 170.192 139.435 170.08 139.565 170.08 C 139.697 170.08 139.847 170.198 139.965 170.198 C 140.119 170.198 140.342 170.109 140.448 170.109 C 140.599 170.109 140.686 170.152 140.682 170.187 C 140.679 170.211 140.703 170.276 140.748 170.354 C 140.795 170.436 140.972 170.494 141.051 170.631 C 141.11 170.734 141.124 170.956 141.193 171.075 C 141.255 171.184 141.443 171.275 141.508 171.388 C 141.571 171.498 141.552 171.694 141.613 171.8 C 141.684 171.923 141.874 172.057 141.934 172.161 C 142.012 172.296 141.972 172.466 142.016 172.542 C 142.056 172.611 142.096 172.66 142.116 172.67 C 142.148 172.687 142.14 172.792 142.061 172.929 C 142.008 173.021 141.823 173.157 141.749 173.286 C 141.689 173.39 141.713 173.589 141.646 173.706 C 141.584 173.813 141.401 173.907 141.339 174.015 C 141.27 174.134 141.262 174.359 141.198 174.469 C 141.129 174.588 140.957 174.647 140.902 174.743 C 140.782 174.951 140.725 175.211 140.725 175.211"
           style="fill:#00ff00;fill-opacity:1;stroke:#17a500;stroke-width:0.210806;stroke-linejoin:round;stroke-miterlimit:4;stroke-opacity:1"
           id="path7" />
        <path
           d="M 143.745 175.195 C 143.745 175.195 143.543 175.156 143.299 175.156 C 143.179 175.156 143.032 175.213 142.882 175.213 C 142.753 175.213 142.59 175.164 142.452 175.164 C 142.313 175.164 142.147 175.216 142.011 175.216 C 141.873 175.216 141.729 175.161 141.605 175.161 C 141.444 175.161 141.261 175.203 141.148 175.203 C 140.987 175.203 140.889 175.182 140.891 175.165 C 140.892 175.154 140.867 175.1 140.821 175.021 C 140.773 174.936 140.65 174.841 140.567 174.697 C 140.505 174.589 140.461 174.419 140.388 174.294 C 140.321 174.178 140.194 174.067 140.124 173.946 C 140.057 173.829 140.029 173.672 139.964 173.561 C 139.89 173.431 139.761 173.301 139.699 173.193 C 139.613 173.045 139.593 172.894 139.547 172.813 C 139.51 172.748 139.482 172.708 139.474 172.703 C 139.459 172.696 139.492 172.59 139.58 172.438 C 139.635 172.342 139.759 172.214 139.835 172.083 C 139.898 171.972 139.925 171.813 139.996 171.69 C 140.061 171.577 140.184 171.469 140.25 171.355 C 140.32 171.233 140.361 171.062 140.427 170.95 C 140.499 170.825 140.617 170.733 140.675 170.632 C 140.799 170.417 140.872 170.225 140.871 170.218 C 140.871 170.217 140.872 170.217 140.875 170.217 C 140.903 170.217 141.098 170.256 141.322 170.256 C 141.441 170.256 141.589 170.199 141.738 170.199 C 141.867 170.199 142.03 170.248 142.168 170.248 C 142.306 170.248 142.472 170.196 142.608 170.196 C 142.747 170.196 142.891 170.251 143.015 170.251 C 143.176 170.251 143.36 170.209 143.472 170.209 C 143.631 170.209 143.727 170.23 143.725 170.246 C 143.723 170.257 143.75 170.314 143.797 170.396 C 143.846 170.481 143.968 170.576 144.051 170.72 C 144.113 170.827 144.158 170.998 144.23 171.123 C 144.296 171.237 144.422 171.345 144.49 171.464 C 144.557 171.58 144.585 171.736 144.649 171.847 C 144.723 171.976 144.852 172.107 144.915 172.216 C 144.997 172.357 145.015 172.502 145.062 172.583 C 145.104 172.656 145.136 172.702 145.146 172.707 C 145.161 172.715 145.129 172.814 145.045 172.958 C 144.99 173.054 144.865 173.184 144.787 173.319 C 144.724 173.429 144.697 173.588 144.626 173.711 C 144.561 173.824 144.438 173.932 144.372 174.046 C 144.301 174.17 144.258 174.343 144.192 174.458 C 144.119 174.583 144.002 174.675 143.943 174.775 C 143.818 174.993 143.745 175.195 143.745 175.195"
           style="fill:#00ff00;fill-opacity:1;stroke:#17a500;stroke-width:0.210806;stroke-linejoin:round;stroke-miterlimit:4;stroke-opacity:1"
           id="path8" />
      </g>
    </g>
  </g>
</svg>
