<?xml version="1.0" encoding="UTF-8" standalone="no"?>
<svg
   xmlns:dc="http://purl.org/dc/elements/1.1/"
   xmlns:cc="http://creativecommons.org/ns#"
   xmlns:rdf="http://www.w3.org/1999/02/22-rdf-syntax-ns#"
   xmlns:svg="http://www.w3.org/2000/svg"
   xmlns="http://www.w3.org/2000/svg"
   xmlns:sodipodi="http://sodipodi.sourceforge.net/DTD/sodipodi-0.dtd"
   xmlns:inkscape="http://www.inkscape.org/namespaces/inkscape"
   sodipodi:docname="advanced-f06.svg"
   inkscape:version="1.0beta1 (a4ee55bc41, 2019-11-15)"
   sodipodi:version="0.32"
   id="svg1956"
   viewBox="0 0 300 61"
   height="61"
   width="300"
   version="1.1">
  <defs
     id="defs3" />
  <sodipodi:namedview
     inkscape:window-maximized="1"
     inkscape:window-y="27"
     inkscape:window-x="54"
     inkscape:window-height="1016"
     inkscape:window-width="1866"
     inkscape:guide-bbox="true"
     showguides="true"
     units="px"
     showgrid="false"
     inkscape:document-rotation="0"
     inkscape:current-layer="layer1"
     inkscape:document-units="px"
     inkscape:cy="-96.200661"
     inkscape:cx="331.33742"
     inkscape:zoom="1.4"
     inkscape:pageshadow="2"
     inkscape:pageopacity="0.0"
     borderopacity="1.0"
     bordercolor="#666666"
     pagecolor="#ffffff"
     id="base"
     inkscape:lockguides="true" />
  <metadata
     id="metadata4">
    <rdf:RDF>
      <cc:Work
         rdf:about="">
        <dc:format>image/svg+xml</dc:format>
        <dc:type
           rdf:resource="http://purl.org/dc/dcmitype/StillImage" />
        <dc:title />
      </cc:Work>
    </rdf:RDF>
  </metadata>
  <g
     id="layer1"
     inkscape:groupmode="layer"
     inkscape:label="Layer 1">
    <polygon
       transform="translate(49.93435,-3814.793)"
       d="m 48.608655,3873.8302 -10.588534,-19.6519 -16.322272,20.7376 8.762624,-20.5312 -26.390037,0.1684 21.515348,-5.9501 -16.5855664,-20.5276 18.0665754,13.1115 5.708175,-25.7658 1.013303,22.2999 23.703543,-11.6019 -16.803007,14.696 23.849661,11.2985 -21.96631,-3.9743 z"
       inkscape:randomized="0"
       inkscape:rounded="0"
       inkscape:flatsided="false"
       points="48.6087,3873.83 38.0201,3854.18 21.6978,3874.92 30.4605,3854.38 4.07044,3854.55 25.5858,3848.6 9.00022,3828.08 27.0668,3841.19 32.775,3815.42 33.7883,3837.72 57.4918,3826.12 40.6888,3840.82 64.5385,3852.11 42.5722,3848.14 48.6087,3873.83 "
       sodipodi:arg2="1.0947087"
       sodipodi:arg1="1.0816765"
       sodipodi:r2="8.7148495"
       sodipodi:r1="31.036766"
       sodipodi:cy="3846.4326"
       sodipodi:cx="34.026058"
       sodipodi:sides="7"
       id="polygon1410"
       style="font-size:12px;fill:#ffff00;fill-opacity:0.75;fill-rule:evenodd;stroke:#000000;stroke-width:1pt"
       sodipodi:type="star" />
    <path
       id="path1412"
       d="m 217.39991,59.034 -10.58853,-19.6519 -16.32227,20.7376 8.76262,-20.5312 -26.39003,0.1684 21.51534,-5.9501 -16.58556,-20.5276 18.06657,13.1115 5.70818,-25.7658 1.0133,22.2999 23.70354,-11.6019 -16.803,14.696 23.84966,11.2985 -21.96631,-3.9743 z"
       style="font-size:12px;fill:#ffff00;fill-opacity:0.75;fill-rule:evenodd;stroke:#000000;stroke-width:1pt"
       inkscape:connector-curvature="0" />
  </g>
</svg>
