<?xml version="1.0" encoding="UTF-8" standalone="no"?>
<svg
   xmlns:dc="http://purl.org/dc/elements/1.1/"
   xmlns:cc="http://creativecommons.org/ns#"
   xmlns:rdf="http://www.w3.org/1999/02/22-rdf-syntax-ns#"
   xmlns:svg="http://www.w3.org/2000/svg"
   xmlns="http://www.w3.org/2000/svg"
   xmlns:sodipodi="http://sodipodi.sourceforge.net/DTD/sodipodi-0.dtd"
   xmlns:inkscape="http://www.inkscape.org/namespaces/inkscape"
   sodipodi:docname="calligraphy-f08.svg"
   inkscape:version="1.0beta1 (a4ee55bc41, 2019-11-15)"
   sodipodi:version="0.32"
   id="svg3018"
   viewBox="0 0 300 62"
   height="62"
   width="300"
   version="1.1">
  <defs
     id="defs3" />
  <sodipodi:namedview
     inkscape:window-maximized="1"
     inkscape:window-y="27"
     inkscape:window-x="54"
     inkscape:window-height="1016"
     inkscape:window-width="1866"
     inkscape:guide-bbox="true"
     showguides="true"
     units="px"
     showgrid="false"
     inkscape:document-rotation="0"
     inkscape:current-layer="layer1"
     inkscape:document-units="px"
     inkscape:cy="33.399943"
     inkscape:cx="175.12119"
     inkscape:zoom="2.8"
     inkscape:pageshadow="2"
     inkscape:pageopacity="0.0"
     borderopacity="1.0"
     bordercolor="#666666"
     pagecolor="#ffffff"
     id="base"
     inkscape:lockguides="true" />
  <metadata
     id="metadata4">
    <rdf:RDF>
      <cc:Work
         rdf:about="">
        <dc:format>image/svg+xml</dc:format>
        <dc:type
           rdf:resource="http://purl.org/dc/dcmitype/StillImage" />
        <dc:title />
      </cc:Work>
    </rdf:RDF>
  </metadata>
  <g
     id="layer1"
     inkscape:groupmode="layer"
     inkscape:label="Layer 1">
    <path

       id="path3323"
       d="M 4.8498985,15.7999 H 295.15014"
       style="display:block;fill:none;fill-opacity:0.75;fill-rule:evenodd;stroke:#aeaeae;stroke-width:0.594897;stroke-linecap:butt;stroke-linejoin:miter;stroke-miterlimit:4;stroke-dasharray:0.594897, 1.78469;stroke-dashoffset:0;stroke-opacity:1"
       inkscape:connector-curvature="0" />
    <path

       id="path3324"
       d="M 4.8498605,44.2571 H 295.15014"
       style="display:block;fill:none;fill-opacity:0.75;fill-rule:evenodd;stroke:#aeaeae;stroke-width:0.594897;stroke-linecap:butt;stroke-linejoin:miter;stroke-miterlimit:4;stroke-dasharray:0.594897, 1.78469;stroke-dashoffset:0;stroke-opacity:1"
       inkscape:connector-curvature="0" />
    <path

       id="path8580"
       d="M 135.60785,60.7353 151.80201,0.2979"
       style="color:#000000;display:block;visibility:visible;fill:none;fill-opacity:0.75;fill-rule:evenodd;stroke:#aeaeae;stroke-width:0.594897;stroke-linecap:butt;stroke-linejoin:miter;stroke-miterlimit:4;stroke-dasharray:0.594897, 1.78469;stroke-dashoffset:0;stroke-opacity:1;marker:none;marker-start:none;marker-mid:none;marker-end:none"
       inkscape:connector-curvature="0" />
    <path

       id="path8581"
       d="M 160.60785,60.7353 176.80201,0.2979"
       style="color:#000000;display:block;visibility:visible;fill:none;fill-opacity:0.75;fill-rule:evenodd;stroke:#aeaeae;stroke-width:0.594897;stroke-linecap:butt;stroke-linejoin:miter;stroke-miterlimit:4;stroke-dasharray:0.594897, 1.78469;stroke-dashoffset:0;stroke-opacity:1;marker:none;marker-start:none;marker-mid:none;marker-end:none"
       inkscape:connector-curvature="0" />
    <path

       id="path8582"
       d="M 185.60785,60.7353 201.80201,0.2979"
       style="color:#000000;display:block;visibility:visible;fill:none;fill-opacity:0.75;fill-rule:evenodd;stroke:#aeaeae;stroke-width:0.594897;stroke-linecap:butt;stroke-linejoin:miter;stroke-miterlimit:4;stroke-dasharray:0.594897, 1.78469;stroke-dashoffset:0;stroke-opacity:1;marker:none;marker-start:none;marker-mid:none;marker-end:none"
       inkscape:connector-curvature="0" />
    <path

       id="path8583"
       d="M 210.60785,60.7353 226.80201,0.2979"
       style="color:#000000;display:block;visibility:visible;fill:none;fill-opacity:0.75;fill-rule:evenodd;stroke:#aeaeae;stroke-width:0.594897;stroke-linecap:butt;stroke-linejoin:miter;stroke-miterlimit:4;stroke-dasharray:0.594897, 1.78469;stroke-dashoffset:0;stroke-opacity:1;marker:none;marker-start:none;marker-mid:none;marker-end:none"
       inkscape:connector-curvature="0" />
    <path

       id="path8584"
       d="M 235.60785,60.7353 251.80201,0.2979"
       style="color:#000000;display:block;visibility:visible;fill:none;fill-opacity:0.75;fill-rule:evenodd;stroke:#aeaeae;stroke-width:0.594897;stroke-linecap:butt;stroke-linejoin:miter;stroke-miterlimit:4;stroke-dasharray:0.594897, 1.78469;stroke-dashoffset:0;stroke-opacity:1;marker:none;marker-start:none;marker-mid:none;marker-end:none"
       inkscape:connector-curvature="0" />
    <path

       id="path8585"
       d="M 260.60785,60.7353 276.80201,0.2979"
       style="color:#000000;display:block;visibility:visible;fill:none;fill-opacity:0.75;fill-rule:evenodd;stroke:#aeaeae;stroke-width:0.594897;stroke-linecap:butt;stroke-linejoin:miter;stroke-miterlimit:4;stroke-dasharray:0.594897, 1.78469;stroke-dashoffset:0;stroke-opacity:1;marker:none;marker-start:none;marker-mid:none;marker-end:none"
       inkscape:connector-curvature="0" />
  </g>
</svg>
